pdb	subdir	asm
200l	00	0
200l	00	1
101m	01	0
101m	01	1
102l	02	0
102l	02	1
102m	02	0
102m	02	1
103m	03	0
103m	03	1
1s00	s0	0
1s00	s0	1
1s00	s0	2
1s01	s0	0
1s01	s0	1
1s02	s0	0
1s02	s0	1
1s05	s0	0
1s06	s0	0
1s06	s0	1
1s07	s0	0
1s07	s0	1
1s08	s0	0
1s08	s0	1
1s09	s0	0
1s09	s0	1
1s0a	s0	0
1s0a	s0	1
1s0b	s0	0
1s0b	s0	1
1s0c	s0	0
1s0c	s0	1
1s0d	s0	0
1s0d	s0	1
1s0e	s0	0
1s0e	s0	1
1s0f	s0	0
1s0f	s0	1
1s0g	s0	0
1s0g	s0	1
1s0h	s0	0
1s0h	s0	1
1s0i	s0	0
1s0i	s0	1
1s0j	s0	0
1s0j	s0	1
1s0l	s0	0
1s0l	s0	1
1s0m	s0	0
1s0m	s0	1
1s0m	s0	2
1s0n	s0	0
1s0n	s0	1
1s0o	s0	0
1s0o	s0	1
1s0o	s0	2
1s0q	s0	0
1s0q	s0	1
1s0r	s0	0
1s0r	s0	1
1s0u	s0	0
1s0u	s0	1
1s0v	s0	0
1s0v	s0	1
1s0v	s0	2
1s0v	s0	3
1s0v	s0	4
1s0w	s0	0
1s0w	s0	1
1s0w	s0	2
1s0x	s0	0
1s0x	s0	1
1s0y	s0	0
1s0y	s0	1
1s0y	s0	2
1s0z	s0	0
1s0z	s0	1
3s00	s0	0
3s00	s0	1
3s01	s0	0
3s02	s0	0
3s02	s0	1
3s02	s0	2
3s03	s0	0
3s03	s0	1
3s03	s0	2
3s03	s0	3
3s04	s0	0
3s04	s0	1
3s04	s0	2
3s04	s0	3
3s05	s0	0
3s05	s0	1
3s06	s0	0
3s06	s0	1
3s06	s0	2
3s0a	s0	0
3s0a	s0	1
3s0b	s0	0
3s0b	s0	1
3s0c	s0	0
3s0c	s0	1
3s0d	s0	0
3s0d	s0	1
3s0e	s0	0
3s0e	s0	1
3s0f	s0	0
3s0f	s0	1
3s0f	s0	2
3s0g	s0	0
3s0g	s0	1
3s0g	s0	2
3s0h	s0	0
3s0h	s0	1
3s0h	s0	2
3s0h	s0	3
3s0i	s0	0
3s0i	s0	1
3s0j	s0	0
3s0j	s0	1
3s0k	s0	0
3s0k	s0	1
3s0n	s0	0
3s0n	s0	1
3s0o	s0	0
3s0o	s0	1
3s0p	s0	0
3s0p	s0	1
3s0p	s0	2
3s0p	s0	3
3s0p	s0	4
3s0q	s0	0
3s0q	s0	1
3s0t	s0	0
3s0w	s0	0
3s0w	s0	1
3s0w	s0	2
3s0y	s0	0
3s0y	s0	1
3s0y	s0	2
3s0z	s0	0
3s0z	s0	1
3s0z	s0	2
1s10	s1	0
1s10	s1	1
1s13	s1	0
1s13	s1	1
1s13	s1	2
1s14	s1	0
1s14	s1	1
1s14	s1	2
1s16	s1	0
1s16	s1	1
1s16	s1	2
1s16	s1	3
1s17	s1	0
1s17	s1	1
1s17	s1	2
1s18	s1	0
1s18	s1	1
1s18	s1	2
1s19	s1	0
1s19	s1	1
1s1c	s1	0
1s1c	s1	1
1s1d	s1	0
1s1d	s1	1
1s1d	s1	2
1s1e	s1	0
1s1e	s1	1
1s1f	s1	0
1s1f	s1	1
1s1i	s1	0
1s1i	s1	1
1s1j	s1	0
1s1j	s1	1
1s1m	s1	0
1s1m	s1	1
1s1n	s1	0
1s1p	s1	0
1s1p	s1	1
1s1q	s1	0
1s1r	s1	0
1s1r	s1	1
1s1s	s1	0
1s1s	s1	1
1s1t	s1	0
1s1t	s1	1
1s1u	s1	0
1s1u	s1	1
1s1v	s1	0
1s1v	s1	1
1s1w	s1	0
1s1w	s1	1
1s1x	s1	0
1s1x	s1	1
1s1y	s1	0
1s1y	s1	1
1s1z	s1	0
1s1z	s1	1
3s14	s1	0
3s14	s1	1
3s15	s1	0
3s15	s1	1
3s16	s1	0
3s16	s1	1
3s17	s1	0
3s17	s1	1
3s18	s1	0
3s18	s1	1
3s19	s1	0
3s19	s1	1
3s19	s1	2
3s1a	s1	0
3s1a	s1	1
3s1b	s1	0
3s1b	s1	1
3s1c	s1	0
3s1c	s1	1
3s1d	s1	0
3s1d	s1	1
3s1e	s1	0
3s1e	s1	1
3s1f	s1	0
3s1f	s1	1
3s1g	s1	0
3s1g	s1	1
3s1h	s1	0
3s1h	s1	1
3s1i	s1	0
3s1i	s1	1
3s1i	s1	2
3s1j	s1	0
3s1j	s1	1
3s1j	s1	2
3s1k	s1	0
3s1k	s1	1
3s1l	s1	0
3s1l	s1	1
3s1m	s1	0
3s1m	s1	1
3s1n	s1	0
3s1n	s1	1
3s1q	s1	0
3s1q	s1	1
3s1r	s1	0
3s1r	s1	1
3s1t	s1	0
3s1t	s1	1
3s1u	s1	1
3s1v	s1	1
3s1w	s1	1
3s1x	s1	1
3s1y	s1	1
3s1z	s1	1
1s26	s2	1
1s26	s2	2
1s26	s2	3
1s2a	s2	1
1s2b	s2	1
1s2c	s2	1
1s2d	s2	1
1s2g	s2	1
1s2i	s2	1
1s2j	s2	1
1s2j	s2	2
1s2k	s2	1
1s2l	s2	1
1s2m	s2	1
1s2n	s2	1
1s2n	s2	2
1s2o	s2	1
1s2p	s2	1
1s2q	s2	1
1s2t	s2	1
1s2u	s2	1
1s2v	s2	1
1s2w	s2	1
1s2w	s2	2
1s2y	s2	1
3s20	s2	1
3s21	s2	1
3s22	s2	1
3s23	s2	1
3s24	s2	1
3s24	s2	2
3s24	s2	3
3s24	s2	4
3s24	s2	5
3s24	s2	6
3s24	s2	7
3s26	s2	1
3s28	s2	1
3s28	s2	2
3s29	s2	1
3s29	s2	2
3s2a	s2	1
3s2c	s2	1
3s2c	s2	2
3s2d	s2	1
3s2e	s2	1
3s2e	s2	2
3s2f	s2	1
3s2f	s2	2
3s2g	s2	1
3s2g	s2	2
3s2h	s2	1
3s2i	s2	1
3s2i	s2	2
3s2j	s2	1
3s2k	s2	1
3s2l	s2	1
3s2m	s2	1
3s2n	s2	1
3s2p	s2	1
3s2q	s2	1
3s2q	s2	2
3s2r	s2	1
3s2s	s2	1
3s2u	s2	1
3s2v	s2	1
3s2w	s2	1
3s2w	s2	2
3s2w	s2	3
3s2w	s2	4
3s2y	s2	1
3s2y	s2	2
3s2y	s2	3
3s2y	s2	4
3s2y	s2	5
3s2z	s2	1
1s31	s3	1
1s31	s3	2
1s32	s3	1
1s35	s3	1
1s36	s3	1
1s38	s3	1
1s38	s3	2
1s39	s3	1
1s39	s3	2
1s3b	s3	1
1s3b	s3	2
1s3c	s3	1
1s3c	s3	2
1s3d	s3	1
1s3d	s3	2
1s3e	s3	1
1s3f	s3	1
1s3g	s3	1
1s3i	s3	1
1s3k	s3	1
1s3n	s3	3
1s3p	s3	1
1s3s	s3	1
1s3u	s3	1
1s3v	s3	1
1s3w	s3	1
1s3x	s3	1
1s3y	s3	1
1s3z	s3	1
3s33	s3	1
3s34	s3	1
3s35	s3	1
3s36	s3	1
3s37	s3	1
3s38	s3	1
3s39	s3	1
3s3a	s3	1
3s3b	s3	1
3s3c	s3	1
3s3d	s3	1
3s3e	s3	1
3s3e	s3	2
3s3f	s3	1
3s3f	s3	2
3s3g	s3	1
3s3h	s3	1
3s3h	s3	2
3s3i	s3	1
3s3j	s3	1
3s3k	s3	1
3s3k	s3	2
3s3l	s3	1
3s3m	s3	1
3s3n	s3	1
3s3o	s3	1
3s3p	s3	1
3s3q	s3	1
3s3r	s3	1
3s3r	s3	2
3s3r	s3	3
3s3s	s3	1
3s3u	s3	1
3s3u	s3	2
3s3u	s3	3
3s3u	s3	4
3s3v	s3	1
3s3v	s3	2
3s3w	s3	1
3s3x	s3	1
1s44	s4	1
1s46	s4	1
1s4b	s4	1
1s4d	s4	1
1s4d	s4	2
1s4d	s4	3
1s4d	s4	4
1s4d	s4	5
1s4d	s4	6
1s4f	s4	1
1s4f	s4	2
1s4f	s4	3
1s4f	s4	4
1s4f	s4	5
1s4f	s4	6
1s4i	s4	1
1s4i	s4	2
1s4i	s4	3
1s4i	s4	4
1s4i	s4	5
1s4i	s4	6
1s4m	s4	1
1s4m	s4	2
1s4n	s4	1
1s4o	s4	1
1s4p	s4	1
1s4q	s4	1
1s4r	s4	1
1s4s	s4	1
1s4u	s4	1
1s4v	s4	1
1s4v	s4	2
1s4y	s4	1
3s40	s4	1
3s40	s4	2
3s40	s4	3
3s40	s4	4
3s40	s4	5
3s41	s4	1
3s42	s4	1
3s43	s4	1
3s44	s4	1
3s45	s4	1
3s47	s4	1
3s47	s4	2
3s48	s4	1
3s48	s4	2
3s4a	s4	1
3s4b	s4	1
3s4c	s4	1
3s4d	s4	1
3s4e	s4	1
3s4f	s4	1
3s4j	s4	1
3s4k	s4	1
3s4k	s4	2
3s4k	s4	3
3s4o	s4	1
3s4o	s4	2
3s4q	s4	1
3s4s	s4	1
3s4s	s4	2
3s4u	s4	1
3s4u	s4	2
3s4x	s4	1
3s4x	s4	2
3s4y	s4	1
1s50	s5	1
1s51	s5	1
1s51	s5	2
1s52	s5	1
1s52	s5	2
1s53	s5	1
1s53	s5	2
1s54	s5	1
1s54	s5	2
1s55	s5	1
1s56	s5	2
1s57	s5	1
1s57	s5	2
